--2014-08-05 21:54:08--  http://oac.us.oracle.com/zipjar.jsp?p_phase=2&p_uri=http%3A%2F%2Fjavapubs.us.oracle.com%2FdocsBuild%2Ftutorial_online%2Ftutorial.zip&p_submit=OK
Resolving oac.us.oracle.com... 10.229.168.114
Connecting to oac.us.oracle.com|10.229.168.114|:80... connected.
HTTP request sent, awaiting response... 302 Found
Location: http://oac.us.oracle.com/report.jsp?p_action=runStatus&p_runid=689067 [following]
--2014-08-05 21:54:10--  http://oac.us.oracle.com/report.jsp?p_action=runStatus&p_runid=689067
Reusing existing connection to oac.us.oracle.com:80.
HTTP request sent, awaiting response... 200 OK
Length: 3478 (3.4K) [text/html]
Saving to: `/java/pubs/docsBuild/tutorial_online/wgot.txt'

     0K ...                                                   100% 56.7M=0s

2014-08-05 21:54:11 (56.7 MB/s) - `/java/pubs/docsBuild/tutorial_online/wgot.txt' saved [3478/3478]

